{
  "generalOptions": {
    "apiKeys": {
      "cartes": [
        "GEOGRAPHICALGRIDSYSTEMS.PLANIGNV2$GEOPORTAIL:OGC:WMTS",
        "SCAN1000_PYR-JPEG_WLD_WM$GEOPORTAIL:OGC:WMS"
      ]
    }
  },
  "layers": {
    "GEOGRAPHICALGRIDSYSTEMS.PLANIGNV2$GEOPORTAIL:OGC:WMTS": {
      "name": "GEOGRAPHICALGRIDSYSTEMS.PLANIGNV2",
      "title": "Plan IGN v2",
      "description": "Cartographie multi-échelles sur le territoire national, issue des bases de données vecteur de l’IGN, mis à jour régulièrement et réalisée selon un processus entièrement automatisé.",
      "globalConstraint": {
        "maxScaleDenominator": 559082264.0287179,
        "minScaleDenominator": 266.5911979812229,
        "bbox": {
          "left": -175.0,
          "right": 175.0,
          "top": 85.0,
          "bottom": -85.0
        }
      },
      "serviceParams": {
        "id": "OGC:WMTS",
        "version": "1.0.0",
        "serverUrl": {
          "cartes": "https://data.geopf.fr/wmts"
        }
      },
      "defaultProjection": "EPSG:3857",
      "wmtsOptions": {
        "tileMatrixSetLink": "PM",
        "tileMatrixSetLimits": {
          "0": {
            "minTileRow": "0",
            "maxTileRow": "0",
            "minTileCol": "0",
            "maxTileCol": "0"
          },
          "1": {
            "minTileRow": "0",
            "maxTileRow": "1",
            "minTileCol": "0",
            "maxTileCol": "1"
          },
          "2": {
            "minTileRow": "0",
            "maxTileRow": "3",
            "minTileCol": "0",
            "maxTileCol": "3"
          },
          "3": {
            "minTileRow": "0",
            "maxTileRow": "7",
            "minTileCol": "0",
            "maxTileCol": "7"
          },
          "4": {
            "minTileRow": "0",
            "maxTileRow": "15",
            "minTileCol": "0",
            "maxTileCol": "15"
          },
          "5": {
            "minTileRow": "0",
            "maxTileRow": "31",
            "minTileCol": "0",
            "maxTileCol": "31"
          },
          "6": {
            "minTileRow": "0",
            "maxTileRow": "63",
            "minTileCol": "0",
            "maxTileCol": "63"
          },
          "7": {
            "minTileRow": "0",
            "maxTileRow": "127",
            "minTileCol": "1",
            "maxTileCol": "126"
          },
          "8": {
            "minTileRow": "0",
            "maxTileRow": "255",
            "minTileCol": "3",
            "maxTileCol": "252"
          },
          "9": {
            "minTileRow": "0",
            "maxTileRow": "511",
            "minTileCol": "7",
            "maxTileCol": "504"
          },
          "10": {
            "minTileRow": "1",
            "maxTileRow": "1022",
            "minTileCol": "14",
            "maxTileCol": "1009"
          },
          "11": {
            "minTileRow": "3",
            "maxTileRow": "2044",
            "minTileCol": "28",
            "maxTileCol": "2019"
          },
          "12": {
            "minTileRow": "6",
            "maxTileRow": "4089",
            "minTileCol": "56",
            "maxTileCol": "4039"
          },
          "13": {
            "minTileRow": "13",
            "maxTileRow": "8178",
            "minTileCol": "113",
            "maxTileCol": "8078"
          },
          "14": {
            "minTileRow": "26",
            "maxTileRow": "16357",
            "minTileCol": "227",
            "maxTileCol": "16156"
          },
          "15": {
            "minTileRow": "53",
            "maxTileRow": "32714",
            "minTileCol": "455",
            "maxTileCol": "32312"
          },
          "16": {
            "minTileRow": "107",
            "maxTileRow": "65428",
            "minTileCol": "910",
            "maxTileCol": "64625"
          },
          "17": {
            "minTileRow": "214",
            "maxTileRow": "130857",
            "minTileCol": "1820",
            "maxTileCol": "129251"
          },
          "18": {
            "minTileRow": "429",
            "maxTileRow": "261714",
            "minTileCol": "3640",
            "maxTileCol": "258503"
          },
          "19": {
            "minTileRow": "858",
            "maxTileRow": "523429",
            "minTileCol": "7281",
            "maxTileCol": "517006"
          }
        }
      },
      "styles": [
        {
          "name": "normal",
          "title": "Légende générique",
          "current": true,
          "url": null
        }
      ],
      "legends": [
        {
          "format": "image/jpeg",
          "url": "https://data.geopf.fr/annexes/ressources/legendes/LEGEND.jpg",
          "minScaleDenominator": "200"
        }
      ],
      "formats": [
        {
          "name": "image/png",
          "current": true
        }
      ]
    },
    "SCAN1000_PYR-JPEG_WLD_WM$GEOPORTAIL:OGC:WMS": {
      "name": "SCAN1000_PYR-JPEG_WLD_WM",
      "title": "SCAN1000 France métropolitaine 2021 (WM)",
      "description": "Le produit SCAN 1000® version 2 est une collection d'images numériques en couleurs, obtenues par rastérisation des données vecteur de la carte nationale France (901) à l'échelle 1 :1,000,000ième. Le produit couvre l'ensemble du territoire français métropolitain et la Corse.",
      "globalConstraint": {
        "minScaleDenominator": 545978.773465546,
        "maxScaleDenominator": 559082264.0287179,
        "bbox": {
          "left": -6.42088,
          "right": 13.55,
          "top": 51.444,
          "bottom": 40.2891
        }
      },
      "serviceParams": {
        "id": "OGC:WMS",
        "version": "1.3.0",
        "serverUrl": {
          "cartes": "https://data.geopf.fr/wms-r/wms"
        }
      },
      "defaultProjection": "EPSG:3857",
      "queryable": false,
      "metadata": [],
      "styles": [
        {
          "name": "SCAN1000",
          "title": "Légende du 1/1000000"
        }
      ],
      "legends": [
        {
          "format": "image/png",
          "url": "https://data.geopf.fr/annexes/ressources/legendes/SCAN1000_PYR-JPEG_WLD_WM-legend.png"
        }
      ],
      "formats": [
        {
          "name": "image/jpeg",
          "current": true
        },
        {
          "name": "image/png",
          "current": false
        },
        {
          "name": "image/tiff",
          "current": false
        },
        {
          "name": "image/geotiff",
          "current": false
        },
        {
          "name": "image/x-bil;bits=32",
          "current": false
        }
      ]
    }
  },
  "tileMatrixSets": {
    "LAMB93_5cm": {
      "projection": "IGNF:LAMB93",
      "nativeResolutions": [
        "209715.2",
        "104857.6",
        "52428.8",
        "26214.4",
        "13107.2",
        "6553.6",
        "3276.8",
        "1638.4",
        "819.2",
        "409.6",
        "204.8",
        "102.4",
        "51.2",
        "25.6",
        "12.8",
        "6.4",
        "3.2",
        "1.6",
        "0.8",
        "0.4",
        "0.2",
        "0.1",
        "0.05"
      ],
      "tileMatrices": {
        "0": {
          "matrixId": "0",
          "matrixHeight": 1,
          "matrixWidth": 1,
          "scaleDenominator": 748982857.1428572,
          "tileHeight": 256,
          "tileWidth": 256,
          "topLeftCorner": {
            "x": 0.0,
            "y": 12000000.0
          }
        },
        "1": {
          "matrixId": "1",
          "matrixHeight": 1,
          "matrixWidth": 1,
          "scaleDenominator": 374491428.5714286,
          "tileHeight": 256,
          "tileWidth": 256,
          "topLeftCorner": {
            "x": 0.0,
            "y": 12000000.0
          }
        },
        "2": {
          "matrixId": "2",
          "matrixHeight": 1,
          "matrixWidth": 1,
          "scaleDenominator": 187245714.2857143,
          "tileHeight": 256,
          "tileWidth": 256,
          "topLeftCorner": {
            "x": 0.0,
            "y": 12000000.0
          }
        },
        "3": {
          "matrixId": "3",
          "matrixHeight": 2,
          "matrixWidth": 1,
          "scaleDenominator": 93622857.14285715,
          "tileHeight": 256,
          "tileWidth": 256,
          "topLeftCorner": {
            "x": 0.0,
            "y": 12000000.0
          }
        },
        "4": {
          "matrixId": "4",
          "matrixHeight": 4,
          "matrixWidth": 1,
          "scaleDenominator": 46811428.571428575,
          "tileHeight": 256,
          "tileWidth": 256,
          "topLeftCorner": {
            "x": 0.0,
            "y": 12000000.0
          }
        },
        "5": {
          "matrixId": "5",
          "matrixHeight": 7,
          "matrixWidth": 1,
          "scaleDenominator": 23405714.285714287,
          "tileHeight": 256,
          "tileWidth": 256,
          "topLeftCorner": {
            "x": 0.0,
            "y": 12000000.0
          }
        },
        "6": {
          "matrixId": "6",
          "matrixHeight": 13,
          "matrixWidth": 2,
          "scaleDenominator": 11702857.142857144,
          "tileHeight": 256,
          "tileWidth": 256,
          "topLeftCorner": {
            "x": 0.0,
            "y": 12000000.0
          }
        },
        "7": {
          "matrixId": "7",
          "matrixHeight": 26,
          "matrixWidth": 4,
          "scaleDenominator": 5851428.571428572,
          "tileHeight": 256,
          "tileWidth": 256,
          "topLeftCorner": {
            "x": 0.0,
            "y": 12000000.0
          }
        },
        "8": {
          "matrixId": "8",
          "matrixHeight": 52,
          "matrixWidth": 7,
          "scaleDenominator": 2925714.285714286,
          "tileHeight": 256,
          "tileWidth": 256,
          "topLeftCorner": {
            "x": 0.0,
            "y": 12000000.0
          }
        },
        "9": {
          "matrixId": "9",
          "matrixHeight": 103,
          "matrixWidth": 13,
          "scaleDenominator": 1462857.142857143,
          "tileHeight": 256,
          "tileWidth": 256,
          "topLeftCorner": {
            "x": 0.0,
            "y": 12000000.0
          }
        },
        "10": {
          "matrixId": "10",
          "matrixHeight": 206,
          "matrixWidth": 25,
          "scaleDenominator": 731428.5714285715,
          "tileHeight": 256,
          "tileWidth": 256,
          "topLeftCorner": {
            "x": 0.0,
            "y": 12000000.0
          }
        },
        "11": {
          "matrixId": "11",
          "matrixHeight": 411,
          "matrixWidth": 50,
          "scaleDenominator": 365714.28571428574,
          "tileHeight": 256,
          "tileWidth": 256,
          "topLeftCorner": {
            "x": 0.0,
            "y": 12000000.0
          }
        },
        "12": {
          "matrixId": "12",
          "matrixHeight": 822,
          "matrixWidth": 99,
          "scaleDenominator": 182857.14285714287,
          "tileHeight": 256,
          "tileWidth": 256,
          "topLeftCorner": {
            "x": 0.0,
            "y": 12000000.0
          }
        },
        "13": {
          "matrixId": "13",
          "matrixHeight": 1643,
          "matrixWidth": 197,
          "scaleDenominator": 91428.57142857143,
          "tileHeight": 256,
          "tileWidth": 256,
          "topLeftCorner": {
            "x": 0.0,
            "y": 12000000.0
          }
        },
        "14": {
          "matrixId": "14",
          "matrixHeight": 3285,
          "matrixWidth": 394,
          "scaleDenominator": 45714.28571428572,
          "tileHeight": 256,
          "tileWidth": 256,
          "topLeftCorner": {
            "x": 0.0,
            "y": 12000000.0
          }
        },
        "15": {
          "matrixId": "15",
          "matrixHeight": 6569,
          "matrixWidth": 788,
          "scaleDenominator": 22857.14285714286,
          "tileHeight": 256,
          "tileWidth": 256,
          "topLeftCorner": {
            "x": 0.0,
            "y": 12000000.0
          }
        },
        "16": {
          "matrixId": "16",
          "matrixHeight": 13138,
          "matrixWidth": 1575,
          "scaleDenominator": 11428.57142857143,
          "tileHeight": 256,
          "tileWidth": 256,
          "topLeftCorner": {
            "x": 0.0,
            "y": 12000000.0
          }
        },
        "17": {
          "matrixId": "17",
          "matrixHeight": 26276,
          "matrixWidth": 3150,
          "scaleDenominator": 5714.285714285715,
          "tileHeight": 256,
          "tileWidth": 256,
          "topLeftCorner": {
            "x": 0.0,
            "y": 12000000.0
          }
        },
        "18": {
          "matrixId": "18",
          "matrixHeight": 52552,
          "matrixWidth": 6300,
          "scaleDenominator": 2857.1428571428573,
          "tileHeight": 256,
          "tileWidth": 256,
          "topLeftCorner": {
            "x": 0.0,
            "y": 12000000.0
          }
        },
        "19": {
          "matrixId": "19",
          "matrixHeight": 105102,
          "matrixWidth": 12600,
          "scaleDenominator": 1428.5714285714287,
          "tileHeight": 256,
          "tileWidth": 256,
          "topLeftCorner": {
            "x": 0.0,
            "y": 12000000.0
          }
        },
        "20": {
          "matrixId": "20",
          "matrixHeight": 210205,
          "matrixWidth": 25200,
          "scaleDenominator": 714.2857142857143,
          "tileHeight": 256,
          "tileWidth": 256,
          "topLeftCorner": {
            "x": 0.0,
            "y": 12000000.0
          }
        },
        "21": {
          "matrixId": "21",
          "matrixHeight": 420409,
          "matrixWidth": 50400,
          "scaleDenominator": 357.14285714285717,
          "tileHeight": 256,
          "tileWidth": 256,
          "topLeftCorner": {
            "x": 0.0,
            "y": 12000000.0
          }
        },
        "22": {
          "matrixId": "22",
          "matrixHeight": 840818,
          "matrixWidth": 100800,
          "scaleDenominator": 178.57142857142858,
          "tileHeight": 256,
          "tileWidth": 256,
          "topLeftCorner": {
            "x": 0.0,
            "y": 12000000.0
          }
        }
      }
    },
    "PM": {
      "projection": "EPSG:3857",
      "nativeResolutions": [
        "156543.0339280410",
        "78271.51696402048",
        "39135.75848201023",
        "19567.87924100512",
        "9783.939620502561",
        "4891.969810251280",
        "2445.984905125640",
        "1222.992452562820",
        "611.4962262814100",
        "305.7481131407048",
        "152.8740565703525",
        "76.43702828517624",
        "38.21851414258813",
        "19.10925707129406",
        "9.554628535647032",
        "4.777314267823516",
        "2.388657133911758",
        "1.194328566955879",
        "0.5971642834779395",
        "0.2985821417389697",
        "0.1492910708694849",
        "0.0746455354347424"
      ],
      "tileMatrices": {
        "0": {
          "matrixId": "0",
          "matrixHeight": 1,
          "matrixWidth": 1,
          "scaleDenominator": 559082264.0287179,
          "tileHeight": 256,
          "tileWidth": 256,
          "topLeftCorner": {
            "x": -20037508.3427892,
            "y": 20037508.3427892
          }
        },
        "1": {
          "matrixId": "1",
          "matrixHeight": 2,
          "matrixWidth": 2,
          "scaleDenominator": 279541132.01435894,
          "tileHeight": 256,
          "tileWidth": 256,
          "topLeftCorner": {
            "x": -20037508.3427892,
            "y": 20037508.3427892
          }
        },
        "2": {
          "matrixId": "2",
          "matrixHeight": 4,
          "matrixWidth": 4,
          "scaleDenominator": 139770566.0071793,
          "tileHeight": 256,
          "tileWidth": 256,
          "topLeftCorner": {
            "x": -20037508.3427892,
            "y": 20037508.3427892
          }
        },
        "3": {
          "matrixId": "3",
          "matrixHeight": 8,
          "matrixWidth": 8,
          "scaleDenominator": 69885283.00358965,
          "tileHeight": 256,
          "tileWidth": 256,
          "topLeftCorner": {
            "x": -20037508.3427892,
            "y": 20037508.3427892
          }
        },
        "4": {
          "matrixId": "4",
          "matrixHeight": 16,
          "matrixWidth": 16,
          "scaleDenominator": 34942641.50179486,
          "tileHeight": 256,
          "tileWidth": 256,
          "topLeftCorner": {
            "x": -20037508.3427892,
            "y": 20037508.3427892
          }
        },
        "5": {
          "matrixId": "5",
          "matrixHeight": 32,
          "matrixWidth": 32,
          "scaleDenominator": 17471320.75089743,
          "tileHeight": 256,
          "tileWidth": 256,
          "topLeftCorner": {
            "x": -20037508.3427892,
            "y": 20037508.3427892
          }
        },
        "6": {
          "matrixId": "6",
          "matrixHeight": 64,
          "matrixWidth": 64,
          "scaleDenominator": 8735660.375448715,
          "tileHeight": 256,
          "tileWidth": 256,
          "topLeftCorner": {
            "x": -20037508.3427892,
            "y": 20037508.3427892
          }
        },
        "7": {
          "matrixId": "7",
          "matrixHeight": 128,
          "matrixWidth": 128,
          "scaleDenominator": 4367830.1877243575,
          "tileHeight": 256,
          "tileWidth": 256,
          "topLeftCorner": {
            "x": -20037508.3427892,
            "y": 20037508.3427892
          }
        },
        "8": {
          "matrixId": "8",
          "matrixHeight": 256,
          "matrixWidth": 256,
          "scaleDenominator": 2183915.0938621787,
          "tileHeight": 256,
          "tileWidth": 256,
          "topLeftCorner": {
            "x": -20037508.3427892,
            "y": 20037508.3427892
          }
        },
        "9": {
          "matrixId": "9",
          "matrixHeight": 512,
          "matrixWidth": 512,
          "scaleDenominator": 1091957.5469310894,
          "tileHeight": 256,
          "tileWidth": 256,
          "topLeftCorner": {
            "x": -20037508.3427892,
            "y": 20037508.3427892
          }
        },
        "10": {
          "matrixId": "10",
          "matrixHeight": 1024,
          "matrixWidth": 1024,
          "scaleDenominator": 545978.7734655464,
          "tileHeight": 256,
          "tileWidth": 256,
          "topLeftCorner": {
            "x": -20037508.3427892,
            "y": 20037508.3427892
          }
        },
        "11": {
          "matrixId": "11",
          "matrixHeight": 2048,
          "matrixWidth": 2048,
          "scaleDenominator": 272989.38673277217,
          "tileHeight": 256,
          "tileWidth": 256,
          "topLeftCorner": {
            "x": -20037508.3427892,
            "y": 20037508.3427892
          }
        },
        "12": {
          "matrixId": "12",
          "matrixHeight": 4096,
          "matrixWidth": 4096,
          "scaleDenominator": 136494.69336638608,
          "tileHeight": 256,
          "tileWidth": 256,
          "topLeftCorner": {
            "x": -20037508.3427892,
            "y": 20037508.3427892
          }
        },
        "13": {
          "matrixId": "13",
          "matrixHeight": 8192,
          "matrixWidth": 8192,
          "scaleDenominator": 68247.34668319322,
          "tileHeight": 256,
          "tileWidth": 256,
          "topLeftCorner": {
            "x": -20037508.3427892,
            "y": 20037508.3427892
          }
        },
        "14": {
          "matrixId": "14",
          "matrixHeight": 16384,
          "matrixWidth": 16384,
          "scaleDenominator": 34123.673341596535,
          "tileHeight": 256,
          "tileWidth": 256,
          "topLeftCorner": {
            "x": -20037508.3427892,
            "y": 20037508.3427892
          }
        },
        "15": {
          "matrixId": "15",
          "matrixHeight": 32768,
          "matrixWidth": 32768,
          "scaleDenominator": 17061.83667079829,
          "tileHeight": 256,
          "tileWidth": 256,
          "topLeftCorner": {
            "x": -20037508.3427892,
            "y": 20037508.3427892
          }
        },
        "16": {
          "matrixId": "16",
          "matrixHeight": 65536,
          "matrixWidth": 65536,
          "scaleDenominator": 8530.918335399145,
          "tileHeight": 256,
          "tileWidth": 256,
          "topLeftCorner": {
            "x": -20037508.3427892,
            "y": 20037508.3427892
          }
        },
        "17": {
          "matrixId": "17",
          "matrixHeight": 131072,
          "matrixWidth": 131072,
          "scaleDenominator": 4265.459167699572,
          "tileHeight": 256,
          "tileWidth": 256,
          "topLeftCorner": {
            "x": -20037508.3427892,
            "y": 20037508.3427892
          }
        },
        "18": {
          "matrixId": "18",
          "matrixHeight": 262144,
          "matrixWidth": 262144,
          "scaleDenominator": 2132.7295838497826,
          "tileHeight": 256,
          "tileWidth": 256,
          "topLeftCorner": {
            "x": -20037508.3427892,
            "y": 20037508.3427892
          }
        },
        "19": {
          "matrixId": "19",
          "matrixHeight": 524288,
          "matrixWidth": 524288,
          "scaleDenominator": 1066.364791924893,
          "tileHeight": 256,
          "tileWidth": 256,
          "topLeftCorner": {
            "x": -20037508.3427892,
            "y": 20037508.3427892
          }
        },
        "20": {
          "matrixId": "20",
          "matrixHeight": 1048576,
          "matrixWidth": 1048576,
          "scaleDenominator": 533.1823959624465,
          "tileHeight": 256,
          "tileWidth": 256,
          "topLeftCorner": {
            "x": -20037508.3427892,
            "y": 20037508.3427892
          }
        },
        "21": {
          "matrixId": "21",
          "matrixHeight": 2097152,
          "matrixWidth": 2097152,
          "scaleDenominator": 266.5911979812229,
          "tileHeight": 256,
          "tileWidth": 256,
          "topLeftCorner": {
            "x": -20037508.3427892,
            "y": 20037508.3427892
          }
        }
      }
    },
    "WGS84G": {
      "projection": "IGNF:WGS84G",
      "nativeResolutions": [
        "0.703125",
        "0.3515625",
        "0.17578125",
        "0.087890625",
        "0.0439453125",
        "0.02197265625",
        "0.010986328125",
        "0.0054931640625",
        "0.00274658203125",
        "0.001373291015625",
        "0.0006866455078125",
        "0.00034332275390625",
        "0.000171661376953125",
        "0.0000858306884765625",
        "0.00004291534423828125",
        "0.000021457672119140625",
        "0.0000107288360595703125",
        "0.00000536441802978515625",
        "0.000002682209014892578125",
        "0.0000013411045074462890625"
      ],
      "tileMatrices": {
        "0": {
          "matrixId": "0",
          "matrixHeight": 1,
          "matrixWidth": 2,
          "scaleDenominator": 279541132.0143589,
          "tileHeight": 256,
          "tileWidth": 256,
          "topLeftCorner": {
            "x": -180.0,
            "y": 90.0
          }
        },
        "1": {
          "matrixId": "1",
          "matrixHeight": 2,
          "matrixWidth": 4,
          "scaleDenominator": 139770566.00717944,
          "tileHeight": 256,
          "tileWidth": 256,
          "topLeftCorner": {
            "x": -180.0,
            "y": 90.0
          }
        },
        "2": {
          "matrixId": "2",
          "matrixHeight": 4,
          "matrixWidth": 8,
          "scaleDenominator": 69885283.00358972,
          "tileHeight": 256,
          "tileWidth": 256,
          "topLeftCorner": {
            "x": -180.0,
            "y": 90.0
          }
        },
        "3": {
          "matrixId": "3",
          "matrixHeight": 8,
          "matrixWidth": 16,
          "scaleDenominator": 34942641.50179486,
          "tileHeight": 256,
          "tileWidth": 256,
          "topLeftCorner": {
            "x": -180.0,
            "y": 90.0
          }
        },
        "4": {
          "matrixId": "4",
          "matrixHeight": 16,
          "matrixWidth": 32,
          "scaleDenominator": 17471320.75089743,
          "tileHeight": 256,
          "tileWidth": 256,
          "topLeftCorner": {
            "x": -180.0,
            "y": 90.0
          }
        },
        "5": {
          "matrixId": "5",
          "matrixHeight": 32,
          "matrixWidth": 64,
          "scaleDenominator": 8735660.375448715,
          "tileHeight": 256,
          "tileWidth": 256,
          "topLeftCorner": {
            "x": -180.0,
            "y": 90.0
          }
        },
        "6": {
          "matrixId": "6",
          "matrixHeight": 64,
          "matrixWidth": 128,
          "scaleDenominator": 4367830.1877243575,
          "tileHeight": 256,
          "tileWidth": 256,
          "topLeftCorner": {
            "x": -180.0,
            "y": 90.0
          }
        },
        "7": {
          "matrixId": "7",
          "matrixHeight": 128,
          "matrixWidth": 256,
          "scaleDenominator": 2183915.0938621787,
          "tileHeight": 256,
          "tileWidth": 256,
          "topLeftCorner": {
            "x": -180.0,
            "y": 90.0
          }
        },
        "8": {
          "matrixId": "8",
          "matrixHeight": 256,
          "matrixWidth": 512,
          "scaleDenominator": 1091957.5469310894,
          "tileHeight": 256,
          "tileWidth": 256,
          "topLeftCorner": {
            "x": -180.0,
            "y": 90.0
          }
        },
        "9": {
          "matrixId": "9",
          "matrixHeight": 512,
          "matrixWidth": 1024,
          "scaleDenominator": 545978.7734655447,
          "tileHeight": 256,
          "tileWidth": 256,
          "topLeftCorner": {
            "x": -180.0,
            "y": 90.0
          }
        },
        "10": {
          "matrixId": "10",
          "matrixHeight": 1024,
          "matrixWidth": 2048,
          "scaleDenominator": 272989.38673277234,
          "tileHeight": 256,
          "tileWidth": 256,
          "topLeftCorner": {
            "x": -180.0,
            "y": 90.0
          }
        },
        "11": {
          "matrixId": "11",
          "matrixHeight": 2048,
          "matrixWidth": 4096,
          "scaleDenominator": 136494.69336638617,
          "tileHeight": 256,
          "tileWidth": 256,
          "topLeftCorner": {
            "x": -180.0,
            "y": 90.0
          }
        },
        "12": {
          "matrixId": "12",
          "matrixHeight": 4096,
          "matrixWidth": 8192,
          "scaleDenominator": 68247.34668319309,
          "tileHeight": 256,
          "tileWidth": 256,
          "topLeftCorner": {
            "x": -180.0,
            "y": 90.0
          }
        },
        "13": {
          "matrixId": "13",
          "matrixHeight": 8192,
          "matrixWidth": 16384,
          "scaleDenominator": 34123.67334159654,
          "tileHeight": 256,
          "tileWidth": 256,
          "topLeftCorner": {
            "x": -180.0,
            "y": 90.0
          }
        },
        "14": {
          "matrixId": "14",
          "matrixHeight": 16384,
          "matrixWidth": 32768,
          "scaleDenominator": 17061.836670798253,
          "tileHeight": 256,
          "tileWidth": 256,
          "topLeftCorner": {
            "x": -180.0,
            "y": 90.0
          }
        },
        "15": {
          "matrixId": "15",
          "matrixHeight": 32768,
          "matrixWidth": 65536,
          "scaleDenominator": 8530.918335399127,
          "tileHeight": 256,
          "tileWidth": 256,
          "topLeftCorner": {
            "x": -180.0,
            "y": 90.0
          }
        },
        "16": {
          "matrixId": "16",
          "matrixHeight": 65536,
          "matrixWidth": 131072,
          "scaleDenominator": 4265.459167699563,
          "tileHeight": 256,
          "tileWidth": 256,
          "topLeftCorner": {
            "x": -180.0,
            "y": 90.0
          }
        },
        "17": {
          "matrixId": "17",
          "matrixHeight": 131072,
          "matrixWidth": 262144,
          "scaleDenominator": 2132.7295838497853,
          "tileHeight": 256,
          "tileWidth": 256,
          "topLeftCorner": {
            "x": -180.0,
            "y": 90.0
          }
        },
        "18": {
          "matrixId": "18",
          "matrixHeight": 262144,
          "matrixWidth": 524288,
          "scaleDenominator": 1066.3647919248926,
          "tileHeight": 256,
          "tileWidth": 256,
          "topLeftCorner": {
            "x": -180.0,
            "y": 90.0
          }
        },
        "19": {
          "matrixId": "19",
          "matrixHeight": 524288,
          "matrixWidth": 1048576,
          "scaleDenominator": 533.1823959624463,
          "tileHeight": 256,
          "tileWidth": 256,
          "topLeftCorner": {
            "x": -180.0,
            "y": 90.0
          }
        }
      }
    },
    "WGS84G_PO": {
      "projection": "IGNF:WGS84G",
      "nativeResolutions": [
        "0.703125",
        "0.3515625",
        "0.17578125",
        "0.087890625",
        "0.0439453125",
        "0.02197265625",
        "0.010986328125",
        "0.0054931640625",
        "0.00274658203125",
        "0.001373291015625",
        "0.0006866455078125",
        "0.00034332275390625",
        "0.000171661376953125"
      ],
      "tileMatrices": {
        "0": {
          "matrixId": "0",
          "matrixHeight": 1,
          "matrixWidth": 2,
          "scaleDenominator": 279541132.0143589,
          "tileHeight": 256,
          "tileWidth": 256,
          "topLeftCorner": {
            "x": -180.0,
            "y": 90.0
          }
        },
        "1": {
          "matrixId": "1",
          "matrixHeight": 2,
          "matrixWidth": 4,
          "scaleDenominator": 139770566.00717944,
          "tileHeight": 256,
          "tileWidth": 256,
          "topLeftCorner": {
            "x": -180.0,
            "y": 90.0
          }
        },
        "2": {
          "matrixId": "2",
          "matrixHeight": 4,
          "matrixWidth": 8,
          "scaleDenominator": 69885283.00358972,
          "tileHeight": 256,
          "tileWidth": 256,
          "topLeftCorner": {
            "x": -180.0,
            "y": 90.0
          }
        },
        "3": {
          "matrixId": "3",
          "matrixHeight": 8,
          "matrixWidth": 16,
          "scaleDenominator": 34942641.50179486,
          "tileHeight": 256,
          "tileWidth": 256,
          "topLeftCorner": {
            "x": -180.0,
            "y": 90.0
          }
        },
        "4": {
          "matrixId": "4",
          "matrixHeight": 16,
          "matrixWidth": 32,
          "scaleDenominator": 17471320.75089743,
          "tileHeight": 256,
          "tileWidth": 256,
          "topLeftCorner": {
            "x": -180.0,
            "y": 90.0
          }
        },
        "5": {
          "matrixId": "5",
          "matrixHeight": 32,
          "matrixWidth": 64,
          "scaleDenominator": 8735660.375448715,
          "tileHeight": 256,
          "tileWidth": 256,
          "topLeftCorner": {
            "x": -180.0,
            "y": 90.0
          }
        },
        "6": {
          "matrixId": "6",
          "matrixHeight": 64,
          "matrixWidth": 128,
          "scaleDenominator": 4367830.1877243575,
          "tileHeight": 256,
          "tileWidth": 256,
          "topLeftCorner": {
            "x": -180.0,
            "y": 90.0
          }
        },
        "7": {
          "matrixId": "7",
          "matrixHeight": 128,
          "matrixWidth": 256,
          "scaleDenominator": 2183915.0938621787,
          "tileHeight": 256,
          "tileWidth": 256,
          "topLeftCorner": {
            "x": -180.0,
            "y": 90.0
          }
        },
        "8": {
          "matrixId": "8",
          "matrixHeight": 256,
          "matrixWidth": 512,
          "scaleDenominator": 1091957.5469310894,
          "tileHeight": 256,
          "tileWidth": 256,
          "topLeftCorner": {
            "x": -180.0,
            "y": 90.0
          }
        },
        "9": {
          "matrixId": "9",
          "matrixHeight": 512,
          "matrixWidth": 1024,
          "scaleDenominator": 545978.7734655447,
          "tileHeight": 256,
          "tileWidth": 256,
          "topLeftCorner": {
            "x": -180.0,
            "y": 90.0
          }
        },
        "10": {
          "matrixId": "10",
          "matrixHeight": 1024,
          "matrixWidth": 2048,
          "scaleDenominator": 272989.38673277234,
          "tileHeight": 256,
          "tileWidth": 256,
          "topLeftCorner": {
            "x": -180.0,
            "y": 90.0
          }
        },
        "11": {
          "matrixId": "11",
          "matrixHeight": 2048,
          "matrixWidth": 4096,
          "scaleDenominator": 136494.69336638617,
          "tileHeight": 256,
          "tileWidth": 256,
          "topLeftCorner": {
            "x": -180.0,
            "y": 90.0
          }
        },
        "12": {
          "matrixId": "12",
          "matrixHeight": 4096,
          "matrixWidth": 8192,
          "scaleDenominator": 68247.34668319309,
          "tileHeight": 256,
          "tileWidth": 256,
          "topLeftCorner": {
            "x": -180.0,
            "y": 90.0
          }
        }
      }
    }
  }
}